<svg width="9" height="16" viewBox="0 0 9 16" fill="none" xmlns="http://www.w3.org/2000/svg">
<g filter="url(#filter0_d_101_53)">
<path d="M6.99002 13.4025L1.09252 7.52249C1.02252 7.45249 0.973058 7.37666 0.944124 7.29499C0.914724 7.21333 0.900024 7.12583 0.900024 7.03249C0.900024 6.93916 0.914724 6.85166 0.944124 6.76999C0.973058 6.68833 1.02252 6.61249 1.09252 6.54249L6.99002 0.644994C7.15336 0.481661 7.35752 0.399994 7.60252 0.399994C7.84752 0.399994 8.05752 0.487494 8.23252 0.662494C8.40752 0.837494 8.49502 1.04166 8.49502 1.27499C8.49502 1.50833 8.40752 1.71249 8.23252 1.88749L3.08752 7.03249L8.23252 12.1775C8.39586 12.3408 8.47752 12.542 8.47752 12.7809C8.47752 13.0203 8.39002 13.2275 8.21502 13.4025C8.04002 13.5775 7.83586 13.665 7.60252 13.665C7.36919 13.665 7.16502 13.5775 6.99002 13.4025Z" fill="white"/>
</g>
<defs>
<filter id="filter0_d_101_53" x="0.900024" y="0.399994" width="7.59497" height="14.665" filterUnits="userSpaceOnUse" color-interpolation-filters="sRGB">
<feFlood flood-opacity="0" result="BackgroundImageFix"/>
<feColorMatrix in="SourceAlpha" type="matrix" values="0 0 0 0 0 0 0 0 0 0 0 0 0 0 0 0 0 0 127 0" result="hardAlpha"/>
<feOffset dy="1.4"/>
<feComposite in2="hardAlpha" operator="out"/>
<feColorMatrix type="matrix" values="0 0 0 0 0.245833 0 0 0 0 0.32125 0 0 0 0 1 0 0 0 1 0"/>
<feBlend mode="normal" in2="BackgroundImageFix" result="effect1_dropShadow_101_53"/>
<feBlend mode="normal" in="SourceGraphic" in2="effect1_dropShadow_101_53" result="shape"/>
</filter>
</defs>
</svg>
