<svg width="38" height="40" viewBox="0 0 38 40" fill="none" xmlns="http://www.w3.org/2000/svg">
<g filter="url(#filter0_d_101_15)">
<circle cx="19" cy="19" r="19" fill="url(#paint0_linear_101_15)"/>
</g>
<g filter="url(#filter1_i_101_15)">
<circle cx="19" cy="19" r="15.4375" fill="url(#paint1_linear_101_15)"/>
</g>
<g filter="url(#filter2_i_101_15)">
<path d="M18.5102 10.2146C18.7461 9.87051 19.2539 9.87051 19.4898 10.2146L22.4404 14.52C22.5176 14.6326 22.6313 14.7152 22.7623 14.7538L27.7687 16.2296C28.1689 16.3476 28.3258 16.8306 28.0714 17.1612L24.8886 21.2979C24.8053 21.4061 24.7619 21.5398 24.7656 21.6763L24.9091 26.8937C24.9206 27.3108 24.5097 27.6093 24.1167 27.4695L19.1989 25.7207C19.0703 25.675 18.9297 25.675 18.8011 25.7207L13.8833 27.4695C13.4903 27.6093 13.0794 27.3108 13.0909 26.8937L13.2344 21.6763C13.2381 21.5398 13.1947 21.4061 13.1114 21.2979L9.92858 17.1612C9.67418 16.8306 9.83112 16.3476 10.2313 16.2296L15.2377 14.7538C15.3687 14.7152 15.4824 14.6326 15.5596 14.52L18.5102 10.2146Z" fill="url(#paint2_linear_101_15)"/>
</g>
<defs>
<filter id="filter0_d_101_15" x="0" y="0" width="38" height="39.7812" filterUnits="userSpaceOnUse" color-interpolation-filters="sRGB">
<feFlood flood-opacity="0" result="BackgroundImageFix"/>
<feColorMatrix in="SourceAlpha" type="matrix" values="0 0 0 0 0 0 0 0 0 0 0 0 0 0 0 0 0 0 127 0" result="hardAlpha"/>
<feOffset dy="1.78125"/>
<feComposite in2="hardAlpha" operator="out"/>
<feColorMatrix type="matrix" values="0 0 0 0 0.992157 0 0 0 0 0.431373 0 0 0 0 0.396078 0 0 0 1 0"/>
<feBlend mode="normal" in2="BackgroundImageFix" result="effect1_dropShadow_101_15"/>
<feBlend mode="normal" in="SourceGraphic" in2="effect1_dropShadow_101_15" result="shape"/>
</filter>
<filter id="filter1_i_101_15" x="3.5625" y="3.5625" width="30.875" height="33.25" filterUnits="userSpaceOnUse" color-interpolation-filters="sRGB">
<feFlood flood-opacity="0" result="BackgroundImageFix"/>
<feBlend mode="normal" in="SourceGraphic" in2="BackgroundImageFix" result="shape"/>
<feColorMatrix in="SourceAlpha" type="matrix" values="0 0 0 0 0 0 0 0 0 0 0 0 0 0 0 0 0 0 127 0" result="hardAlpha"/>
<feOffset dy="2.375"/>
<feGaussianBlur stdDeviation="1.1875"/>
<feComposite in2="hardAlpha" operator="arithmetic" k2="-1" k3="1"/>
<feColorMatrix type="matrix" values="0 0 0 0 0.904167 0 0 0 0 0.691117 0 0 0 0 0.223781 0 0 0 1 0"/>
<feBlend mode="normal" in2="shape" result="effect1_innerShadow_101_15"/>
</filter>
<filter id="filter2_i_101_15" x="9.80505" y="9.95654" width="18.3899" height="19.3291" filterUnits="userSpaceOnUse" color-interpolation-filters="sRGB">
<feFlood flood-opacity="0" result="BackgroundImageFix"/>
<feBlend mode="normal" in="SourceGraphic" in2="BackgroundImageFix" result="shape"/>
<feColorMatrix in="SourceAlpha" type="matrix" values="0 0 0 0 0 0 0 0 0 0 0 0 0 0 0 0 0 0 127 0" result="hardAlpha"/>
<feOffset dy="1.78125"/>
<feGaussianBlur stdDeviation="0.890625"/>
<feComposite in2="hardAlpha" operator="arithmetic" k2="-1" k3="1"/>
<feColorMatrix type="matrix" values="0 0 0 0 0.984314 0 0 0 0 0.54902 0 0 0 0 0.239216 0 0 0 1 0"/>
<feBlend mode="normal" in2="shape" result="effect1_innerShadow_101_15"/>
</filter>
<linearGradient id="paint0_linear_101_15" x1="19" y1="0" x2="19" y2="38" gradientUnits="userSpaceOnUse">
<stop stop-color="#FEEB3F"/>
<stop offset="0.602083" stop-color="#FEC922"/>
<stop offset="1" stop-color="#FFAC05"/>
</linearGradient>
<linearGradient id="paint1_linear_101_15" x1="19" y1="3.5625" x2="19" y2="34.4375" gradientUnits="userSpaceOnUse">
<stop offset="0.169792" stop-color="#FDCC48"/>
<stop offset="0.445833" stop-color="#FCC83C"/>
<stop offset="0.951042" stop-color="#FFA722"/>
</linearGradient>
<linearGradient id="paint2_linear_101_15" x1="19" y1="9.5" x2="19" y2="26.4219" gradientUnits="userSpaceOnUse">
<stop stop-color="#FEA250"/>
<stop offset="0.398958" stop-color="#FBA04E"/>
<stop offset="0.779167" stop-color="#FD8A56"/>
</linearGradient>
</defs>
</svg>
