<svg width="66" height="91" viewBox="0 0 66 91" fill="none" xmlns="http://www.w3.org/2000/svg">
<g filter="url(#filter0_dd_4_60)">
<path d="M8.24998 87C5.98123 87 4.03973 86.1894 2.42548 84.5681C0.808484 82.9441 -1.52588e-05 80.9929 -1.52588e-05 78.7143V37.2857C-1.52588e-05 35.0071 0.808484 33.0559 2.42548 31.4319C4.03973 29.8106 5.98123 29 8.24998 29H12.375V20.7143C12.375 14.9833 14.3866 10.0975 18.4099 6.05686C22.4304 2.01895 27.2937 0 33 0C38.7062 0 43.571 2.01895 47.5942 6.05686C51.6147 10.0975 53.625 14.9833 53.625 20.7143V29H57.75C60.0187 29 61.9616 29.8106 63.5786 31.4319C65.1929 33.0559 66 35.0071 66 37.2857V78.7143C66 80.9929 65.1929 82.9441 63.5786 84.5681C61.9616 86.1894 60.0187 87 57.75 87H8.24998ZM33 66.2857C35.2687 66.2857 37.2116 65.4751 38.8286 63.8539C40.4429 62.2299 41.25 60.2786 41.25 58C41.25 55.7214 40.4429 53.7701 38.8286 52.1461C37.2116 50.5249 35.2687 49.7143 33 49.7143C30.7312 49.7143 28.7897 50.5249 27.1755 52.1461C25.5585 53.7701 24.75 55.7214 24.75 58C24.75 60.2786 25.5585 62.2299 27.1755 63.8539C28.7897 65.4751 30.7312 66.2857 33 66.2857ZM20.625 29H45.375V20.7143C45.375 17.2619 44.1719 14.3274 41.7656 11.9107C39.3594 9.49405 36.4375 8.28571 33 8.28571C29.5625 8.28571 26.6406 9.49405 24.2344 11.9107C21.8281 14.3274 20.625 17.2619 20.625 20.7143V29Z" fill="url(#paint0_linear_4_60)"/>
</g>
<defs>
<filter id="filter0_dd_4_60" x="-1.52588e-05" y="0" width="66" height="91" filterUnits="userSpaceOnUse" color-interpolation-filters="sRGB">
<feFlood flood-opacity="0" result="BackgroundImageFix"/>
<feColorMatrix in="SourceAlpha" type="matrix" values="0 0 0 0 0 0 0 0 0 0 0 0 0 0 0 0 0 0 127 0" result="hardAlpha"/>
<feOffset dy="4"/>
<feComposite in2="hardAlpha" operator="out"/>
<feColorMatrix type="matrix" values="0 0 0 0 0.996078 0 0 0 0 0.168627 0 0 0 0 0.00392157 0 0 0 1 0"/>
<feBlend mode="normal" in2="BackgroundImageFix" result="effect1_dropShadow_4_60"/>
<feColorMatrix in="SourceAlpha" type="matrix" values="0 0 0 0 0 0 0 0 0 0 0 0 0 0 0 0 0 0 127 0" result="hardAlpha"/>
<feOffset dy="1"/>
<feComposite in2="hardAlpha" operator="out"/>
<feColorMatrix type="matrix" values="0 0 0 0 0.134792 0 0 0 0 0.238479 0 0 0 0 0.25 0 0 0 1 0"/>
<feBlend mode="normal" in2="effect1_dropShadow_4_60" result="effect2_dropShadow_4_60"/>
<feBlend mode="normal" in="SourceGraphic" in2="effect2_dropShadow_4_60" result="shape"/>
</filter>
<linearGradient id="paint0_linear_4_60" x1="33.292" y1="23.2674" x2="32.6194" y2="67.3721" gradientUnits="userSpaceOnUse">
<stop stop-color="#FEFE26"/>
<stop offset="0.258333" stop-color="#FFFF68"/>
<stop offset="0.465961" stop-color="#FEFFED"/>
<stop offset="0.641679" stop-color="#FE9A28"/>
<stop offset="0.817467" stop-color="#FEE41D"/>
</linearGradient>
</defs>
</svg>
